recordings/test-recording.vcd
$timescale 1 us $end
$scope module Homey $end
$var wire 1 ! Recording $end
$upscope $end
$enddefinitions $end
#0
1!
#5548
0!
#11514
1!
#11880
0!
#12283
1!
#12996
0!
#13756
1!
#14107
0!
#14501
1!
#15225
0!
#15974
1!
#16338
0!
#16733
1!
#17451
0!
#18207
1!
#18558
0!
#18960
1!
#19677
0!
#20426
1!
#20794
0!
#21190
1!
#21904
0!
#22657
1!
#23015
0!
#23409
1!
#24132
0!
#24881
1!
#25241
0!
#41229
1!
#41582
0!
#42023
1!
#42701
0!
#43481
1!
#43821
0!
#44238
1!
#44932
0!
#45697
1!
#46056
0!
#46460
1!
#47166
0!
#47925
1!
#48286
0!
#48682
1!
#49400
0!
#50156
1!
#50507
0!
#50910
1!
#51627
0!
#52376
1!
#52732
0!
#53131
1!
#53845
0!
#54601
1!
#54961
0!
#58051
1!
#58061
0!
#58598
1!
#58640
0!
#64378
1!
#64722
0!
#65173
1!
#65850
0!
#66631
1!
#66972
0!
#67378
1!
#68085
0!
#68850
1!
#69202
0!
#69607
1!
#70316
0!
#71073
1!
#71435
0!
#71828
1!
#72547
0!
#73295
1!
#73661
0!
#74051
1!
#74773
0!
#75522
1!
#75883
0!
#76278
1!
#76991
0!
#77749
1!
#78109
0!
#94101
1!
#94454
0!
#94880
1!
#95575
0!
#96352
1!
#96690
0!
#97103
1!
#97808
0!
#98565
1!
#98917
0!
#99328
1!
#100034
0!
#100793
1!
#101150
0!
#101551
1!
#102263
0!
#103021
1!
#103382
0!
#103777
1!
#104489
0!
#105248
1!
#105607
0!
#106006
1!
#106720
0!
#107470
1!
#107835
0!
#110931
1!
#111285
0!
#111730
1!
#112404
0!
#113191
1!
#113528
0!
#113941
1!
#114643
0!
#115409
1!
#115760
0!
#116162
1!
#116870
0!
#117628
1!
#117992
0!
#118383
1!
#119105
0!
#119860
1!
#120220
0!
#120614
1!
#121326
0!
#122084
1!
#122443
0!
#122842
1!
#123557
0!
#124311
1!
#124673
0!
#140661
1!
#141015
0!
#141465
1!
#142131
0!
#142919
1!
#143253
0!
#143675
1!
#144371
0!
#145137
1!
#145496
0!
#145896
1!
#146600
0!
#147367
1!
#147719
0!
#148122
1!
#148839
0!
#149592
1!
#149953
0!
#150349
1!
#151065
0!
#151813
1!
#152173
0!
#152577
1!
#153289
0!
#154042
1!
#154400
0!
#157478
1!
#157842
0!
#158273
1!
#158951
0!
#159729
1!
#160073
0!
#160487
1!
#161195
0!
#161949
1!
#162307
0!
#162707
1!
#163423
0!
#164180
1!
#164542
0!
#164934
1!
#165653
0!
#166402
1!
#166766
0!
#167158
1!
#167879
0!
#168630
1!
#168988
0!
#169390
1!
#170102
0!
#170862
1!
#171213
0!
#181290
1!
#181311
0!
#181489
1!
#181510
0!
#182987
1!
#183018
0!
#183155
1!
#183186
0!
#183228
1!
#183259
0!
#183510
1!
#183551
0!
#183644
1!
#183675
0!
#183779
1!
#183863
0!
#183904
1!
#184276
1!
#184286
0!
#184337
1!
#184347
0!
#184357
1!
#184409
0!
#184461
1!
#184471
0!
#184502
1!
#184616
0!
#184845
1!
#184917
0!
#184958
1!
#184988
0!
#185112
1!
#186640
0!
#187006
1!
#187435
0!
#188127
1!
#188894
0!
#189246
1!
#189648
0!
#190356
1!
#191125
0!
#191477
1!
#191869
0!
#192589
1!
#193342
0!
#193701
1!
#194103
0!
#194814
1!
#195572
0!
#195931
1!
#196330
0!
#197044
1!
#197804
0!
#198161
1!
#198562
0!
#199275
1!
#200032
0!
#200384
1!